\boolfalse {citerequest}\boolfalse {citetracker}\boolfalse {pagetracker}\boolfalse {backtracker}\relax 
\babel@toc {french}{}
\defcounter {refsection}{0}\relax 
\contentsline {chapter}{\numberline {1}Introduction}{1}{chapter.1}%
\defcounter {refsection}{0}\relax 
\contentsline {chapter}{\numberline {2}Travail effectué}{2}{chapter.2}%
\defcounter {refsection}{0}\relax 
\contentsline {section}{\numberline {2.1}Installation}{2}{section.2.1}%
\defcounter {refsection}{0}\relax 
\contentsline {section}{\numberline {2.2}Éléments utilisés}{3}{section.2.2}%
\defcounter {refsection}{0}\relax 
\contentsline {section}{\numberline {2.3}Fonctionnement}{4}{section.2.3}%
\defcounter {refsection}{0}\relax 
\contentsline {chapter}{\numberline {3}Résultats}{6}{chapter.3}%
