\BOOKMARK [0][-]{chapter.1}{Introduction}{}% 1
\BOOKMARK [0][-]{chapter.2}{Travail effectu\351}{}% 2
\BOOKMARK [1][-]{section.2.1}{Installation}{chapter.2}% 3
\BOOKMARK [1][-]{section.2.2}{\311l\351ments utilis\351s}{chapter.2}% 4
\BOOKMARK [1][-]{section.2.3}{Fonctionnement}{chapter.2}% 5
\BOOKMARK [0][-]{chapter.3}{R\351sultats}{}% 6
