\relax 
\providecommand\hyper@newdestlabel[2]{}
\providecommand\babel@aux[2]{}
\@nameuse{bbl@beforestart}
\catcode `:\active 
\catcode `;\active 
\catcode `!\active 
\catcode `?\active 
\providecommand\HyperFirstAtBeginDocument{\AtBeginDocument}
\HyperFirstAtBeginDocument{\ifx\hyper@anchor\@undefined
\global\let\oldcontentsline\contentsline
\gdef\contentsline#1#2#3#4{\oldcontentsline{#1}{#2}{#3}}
\global\let\oldnewlabel\newlabel
\gdef\newlabel#1#2{\newlabelxx{#1}#2}
\gdef\newlabelxx#1#2#3#4#5#6{\oldnewlabel{#1}{{#2}{#3}}}
\AtEndDocument{\ifx\hyper@anchor\@undefined
\let\contentsline\oldcontentsline
\let\newlabel\oldnewlabel
\fi}
\fi}
\global\let\hyper@last\relax 
\gdef\HyperFirstAtBeginDocument#1{#1}
\providecommand\HyField@AuxAddToFields[1]{}
\providecommand\HyField@AuxAddToCoFields[2]{}
\@writefile{toc}{\boolfalse {citerequest}\boolfalse {citetracker}\boolfalse {pagetracker}\boolfalse {backtracker}\relax }
\@writefile{lof}{\boolfalse {citerequest}\boolfalse {citetracker}\boolfalse {pagetracker}\boolfalse {backtracker}\relax }
\@writefile{lot}{\boolfalse {citerequest}\boolfalse {citetracker}\boolfalse {pagetracker}\boolfalse {backtracker}\relax }
\abx@aux@refcontext{none/global//global/global}
\babel@aux{french}{}
\@writefile{toc}{\defcounter {refsection}{0}\relax }\@writefile{toc}{\contentsline {chapter}{\numberline {1}Introduction}{1}{chapter.1}\protected@file@percent }
\@writefile{lof}{\defcounter {refsection}{0}\relax }\@writefile{lof}{\addvspace {10\p@ }}
\@writefile{lot}{\defcounter {refsection}{0}\relax }\@writefile{lot}{\addvspace {10\p@ }}
\@writefile{lof}{\defcounter {refsection}{0}\relax }\@writefile{lof}{\contentsline {figure}{\numberline {1.1}{\ignorespaces Fonctionnement MQTT\relax }}{1}{figure.caption.2}\protected@file@percent }
\providecommand*\caption@xref[2]{\@setref\relax\@undefined{#1}}
\newlabel{fig:mqtt1}{{1.1}{1}{Fonctionnement MQTT\relax }{figure.caption.2}{}}
\@writefile{toc}{\defcounter {refsection}{0}\relax }\@writefile{toc}{\contentsline {chapter}{\numberline {2}Travail effectué}{2}{chapter.2}\protected@file@percent }
\@writefile{lof}{\defcounter {refsection}{0}\relax }\@writefile{lof}{\addvspace {10\p@ }}
\@writefile{lot}{\defcounter {refsection}{0}\relax }\@writefile{lot}{\addvspace {10\p@ }}
\@writefile{toc}{\defcounter {refsection}{0}\relax }\@writefile{toc}{\contentsline {section}{\numberline {2.1}Installation}{2}{section.2.1}\protected@file@percent }
\@writefile{lof}{\defcounter {refsection}{0}\relax }\@writefile{lof}{\contentsline {figure}{\numberline {2.1}{\ignorespaces Premier test\relax }}{2}{figure.caption.3}\protected@file@percent }
\newlabel{fig:mqtt}{{2.1}{2}{Premier test\relax }{figure.caption.3}{}}
\@writefile{toc}{\defcounter {refsection}{0}\relax }\@writefile{toc}{\contentsline {section}{\numberline {2.2}Éléments utilisés}{3}{section.2.2}\protected@file@percent }
\newlabel{fig:dht11}{{2.2a}{3}{Subfigure 2 2.2a}{subfigure.2.2.1}{}}
\newlabel{sub@fig:dht11}{{(a)}{a}{Subfigure 2 2.2a\relax }{subfigure.2.2.1}{}}
\newlabel{fig:servo}{{2.2b}{3}{Subfigure 2 2.2b}{subfigure.2.2.2}{}}
\newlabel{sub@fig:servo}{{(b)}{b}{Subfigure 2 2.2b\relax }{subfigure.2.2.2}{}}
\@writefile{lof}{\defcounter {refsection}{0}\relax }\@writefile{lof}{\contentsline {figure}{\numberline {2.2}{\ignorespaces Éléments utilisés\relax }}{3}{figure.caption.4}\protected@file@percent }
\newlabel{fig:e}{{2.2}{3}{Éléments utilisés\relax }{figure.caption.4}{}}
\@writefile{lof}{\defcounter {refsection}{0}\relax }\@writefile{lof}{\contentsline {subfigure}{\numberline{(a)}{\ignorespaces {DHT11}}}{3}{subfigure.2.1}\protected@file@percent }
\@writefile{lof}{\defcounter {refsection}{0}\relax }\@writefile{lof}{\contentsline {subfigure}{\numberline{(b)}{\ignorespaces {Servomoteur}}}{3}{subfigure.2.2}\protected@file@percent }
\@writefile{lof}{\defcounter {refsection}{0}\relax }\@writefile{lof}{\contentsline {figure}{\numberline {2.3}{\ignorespaces Schéma de câblage\relax }}{3}{figure.caption.5}\protected@file@percent }
\newlabel{fig:diagram}{{2.3}{3}{Schéma de câblage\relax }{figure.caption.5}{}}
\@writefile{lof}{\defcounter {refsection}{0}\relax }\@writefile{lof}{\contentsline {figure}{\numberline {2.4}{\ignorespaces GPIO Pins\relax }}{4}{figure.caption.6}\protected@file@percent }
\newlabel{fig:d}{{2.4}{4}{GPIO Pins\relax }{figure.caption.6}{}}
\@writefile{toc}{\defcounter {refsection}{0}\relax }\@writefile{toc}{\contentsline {section}{\numberline {2.3}Fonctionnement}{4}{section.2.3}\protected@file@percent }
\@writefile{toc}{\defcounter {refsection}{0}\relax }\@writefile{toc}{\contentsline {chapter}{\numberline {3}Résultats}{6}{chapter.3}\protected@file@percent }
\@writefile{lof}{\defcounter {refsection}{0}\relax }\@writefile{lof}{\addvspace {10\p@ }}
\@writefile{lot}{\defcounter {refsection}{0}\relax }\@writefile{lot}{\addvspace {10\p@ }}
\@writefile{lof}{\defcounter {refsection}{0}\relax }\@writefile{lof}{\contentsline {figure}{\numberline {3.1}{\ignorespaces État du capteur + servomoteur\relax }}{6}{figure.caption.7}\protected@file@percent }
\newlabel{fig:r90}{{3.1}{6}{État du capteur + servomoteur\relax }{figure.caption.7}{}}
\@writefile{lof}{\defcounter {refsection}{0}\relax }\@writefile{lof}{\contentsline {figure}{\numberline {3.2}{\ignorespaces Angle à 90° lorsque l'humidité est entre 40 et 60\%\relax }}{6}{figure.caption.8}\protected@file@percent }
\newlabel{fig:s90}{{3.2}{6}{Angle à 90° lorsque l'humidité est entre 40 et 60\%\relax }{figure.caption.8}{}}
\@writefile{lof}{\defcounter {refsection}{0}\relax }\@writefile{lof}{\contentsline {figure}{\numberline {3.3}{\ignorespaces État du capteur + servomoteur\relax }}{7}{figure.caption.9}\protected@file@percent }
\newlabel{fig:r180}{{3.3}{7}{État du capteur + servomoteur\relax }{figure.caption.9}{}}
\@writefile{lof}{\defcounter {refsection}{0}\relax }\@writefile{lof}{\contentsline {figure}{\numberline {3.4}{\ignorespaces Angle à 180° lorsque l'humidité est entre 60 et 99\%\relax }}{7}{figure.caption.10}\protected@file@percent }
\newlabel{fig:s180}{{3.4}{7}{Angle à 180° lorsque l'humidité est entre 60 et 99\%\relax }{figure.caption.10}{}}
\newlabel{fig:GitLab}{{\caption@xref {fig:GitLab}{ on input line 347}}{7}{Résultats}{figure.caption.11}{}}
\newlabel{LastPage}{{}{7}{}{page.7}{}}
\xdef\lastpage@lastpage{7}
\xdef\lastpage@lastpageHy{7}
\abx@aux@read@bbl@mdfivesum{nobblfile}
\gdef \@abspage@last{9}
